{
	"lanes" : 
	[
		{
			"vehicles" : 
			[
				{
					"bottom" : 
					{
						"angle" : 10.429868698120117,
						"center" : 
						{
							"x" : -1.7435044050216675,
							"y" : -0.89261478185653687,
							"z" : -1.7845022678375244
						},
						"size" : 
						{
							"height" : 0.60000002384185791,
							"width" : 1.5
						}
					},
					"height" : 1.5594807863235474
				},
				{
					"bottom" : 
					{
						"angle" : 10.429868698120117,
						"center" : 
						{
							"x" : 0.10051498562097549,
							"y" : -0.55317991971969604,
							"z" : -1.7774039506912231
						},
						"size" : 
						{
							"height" : 0.60000002384185791,
							"width" : 1.5500000715255737
						}
					},
					"height" : 0.65239608287811279
				},
				{
					"bottom" : 
					{
						"angle" : -169.57012939453125,
						"center" : 
						{
							"x" : 0.064739994704723358,
							"y" : -0.61060333251953125,
							"z" : -1.7774039506912231
						},
						"size" : 
						{
							"height" : 0.60000002384185791,
							"width" : 1.7000000476837158
						}
					},
					"height" : 0.65239608287811279
				},
				{
					"bottom" : 
					{
						"angle" : -169.57012939453125,
						"center" : 
						{
							"x" : -1.7883316278457642,
							"y" : -0.90086519718170166,
							"z" : -1.7394423484802246
						},
						"size" : 
						{
							"height" : 0.5,
							"width" : 1.3500000238418579
						}
					},
					"height" : 1.5144208669662476
				}
			]
		},
		{
			"vehicles" : 
			[
				{
					"bottom" : 
					{
						"angle" : 10.429868698120117,
						"center" : 
						{
							"x" : -1.7435044050216675,
							"y" : -0.89261478185653687,
							"z" : -1.7845022678375244
						},
						"size" : 
						{
							"height" : 0.60000002384185791,
							"width" : 1.5
						}
					},
					"height" : 1.5594807863235474
				},
				{
					"bottom" : 
					{
						"angle" : 10.429868698120117,
						"center" : 
						{
							"x" : 0.10051498562097549,
							"y" : -0.55317991971969604,
							"z" : -1.7774039506912231
						},
						"size" : 
						{
							"height" : 0.60000002384185791,
							"width" : 1.5500000715255737
						}
					},
					"height" : 0.65239608287811279
				},
				{
					"bottom" : 
					{
						"angle" : -169.57012939453125,
						"center" : 
						{
							"x" : 0.064739994704723358,
							"y" : -0.61060333251953125,
							"z" : -1.7774039506912231
						},
						"size" : 
						{
							"height" : 0.60000002384185791,
							"width" : 1.7000000476837158
						}
					},
					"height" : 0.65239608287811279
				},
				{
					"bottom" : 
					{
						"angle" : -169.57012939453125,
						"center" : 
						{
							"x" : -1.7883316278457642,
							"y" : -0.90086519718170166,
							"z" : -1.7394423484802246
						},
						"size" : 
						{
							"height" : 0.5,
							"width" : 1.3500000238418579
						}
					},
					"height" : 1.5144208669662476
				}
			]
		}
	]
}